dump_1.vcd
$version Generated by VerilatedVcd $end
$timescale 100ps $end
 $scope module TOP $end
  $var wire 36 0 product [35:0] $end
  $var wire 1 2 done $end
  $var wire 18 3 mplier [17:0] $end
  $var wire 18 4 mcand [17:0] $end
  $var wire 1 5 n_reset $end
  $var wire 1 6 start $end
  $var wire 1 7 clk $end
  $scope module BoothRadix4 $end
   $var wire 32 8 N [31:0] $end
   $var wire 36 0 product [35:0] $end
   $var wire 1 2 done $end
   $var wire 18 3 mplier [17:0] $end
   $var wire 18 4 mcand [17:0] $end
   $var wire 1 5 n_reset $end
   $var wire 1 6 start $end
   $var wire 1 7 clk $end
   $var wire 2 9 IDLE [1:0] $end
   $var wire 2 : BUSY [1:0] $end
   $var wire 2 * state_reg [1:0] $end
   $var wire 2 # state_next [1:0] $end
   $var wire 5 + q_reg [4:0] $end
   $var wire 5 $ q_next [4:0] $end
   $var wire 37 , prod_reg [36:0] $end
   $var wire 37 % prod_next [36:0] $end
   $var wire 1 . result_reg $end
   $var wire 18 / mcand_reg [17:0] $end
   $var wire 18 ' mcand_next [17:0] $end
   $var wire 1 ( q_add $end
   $var wire 1 ) q_reset $end
  $upscope $end
 $upscope $end
$enddefinitions $end


#0
b00 #
b00000 $
b0000000000000000000000000000000000000 %
b000000000000000000 '
0(
0)
b00 *
b00000 +
b0000000000000000000000000000000000000 ,
0.
b000000000000000000 /
b000000000000000000000000000000000000 0
02
b000000000000101101 3
b000000000000110110 4
15
06
17
b00000000000000000000000000010010 8
b01 9
b10 :
#1
07
#2
b01 #
b01 *
05
17
#3
07
#4
b10 #
b00001 $
b0000000000000110110000000000000010110 %
b000000000000110110 '
1(
b10 *
b0000000000000000000000000000000101101 ,
b000000000000110110 /
15
16
17
#5
07
#6
b00010 $
b1111111111111010111100000000000000101 %
b00001 +
b0000000000000011011000000000000001011 ,
06
17
#7
07
#8
b00011 $
b1111111111110111111111000000000000001 %
b00010 +
b1111111111111101011110000000000000010 ,
1.
17
#9
07
#10
b00100 $
b0000000000000100101111110000000000000 %
b00011 +
b1111111111111011111111100000000000000 ,
17
#11
07
#12
b00101 $
b0000000000000001001011111100000000000 %
b00100 +
b0000000000000010010111111000000000000 ,
0.
17
#13
07
#14
b00110 $
b0000000000000000010010111111000000000 %
b00101 +
b0000000000000000100101111110000000000 ,
17
#15
07
#16
b00111 $
b0000000000000000000100101111110000000 %
b00110 +
b0000000000000000001001011111100000000 ,
17
#17
07
#18
b01000 $
b0000000000000000000001001011111100000 %
b00111 +
b0000000000000000000010010111111000000 ,
17
#19
07
#20
b01001 $
b0000000000000000000000010010111111000 %
b01000 +
b0000000000000000000000100101111110000 ,
17
#21
07
#22
b01 #
b00000 $
b0000000000000000000000000100101111110 %
0(
1)
b01001 +
b0000000000000000000000001001011111100 ,
12
17
#23
07
#24
b0000000000000000000000000010010111111 %
0)
b01 *
b00000 +
b0000000000000000000000000010010111111 ,
b000000000000000000000000100101111110 0
02
17
#25
07
#26
b0000000000000000000000000001001011111 %
b0000000000000000000000000001001011111 ,
1.
17
#27
07
#28
b0000000000000000000000000000100101111 %
b0000000000000000000000000000100101111 ,
17
#29
07
#30
b0000000000000000000000000000010010111 %
b0000000000000000000000000000010010111 ,
17
#31
07
#32
b0000000000000000000000000000001001011 %
b0000000000000000000000000000001001011 ,
17
#33
07
#34
b0000000000000000000000000000000100101 %
b0000000000000000000000000000000100101 ,
17
#35
07
#36
b0000000000000000000000000000000010010 %
b0000000000000000000000000000000010010 ,
17
#37
07
#38
b0000000000000000000000000000000001001 %
b0000000000000000000000000000000001001 ,
0.
17
#39
07
#40
b0000000000000000000000000000000000100 %
b0000000000000000000000000000000000100 ,
1.
17
#41
07
#42
b0000000000000000000000000000000000010 %
b0000000000000000000000000000000000010 ,
0.
17
#43
07
#44
b0000000000000000000000000000000000001 %
b0000000000000000000000000000000000001 ,
17
#45
07
#46
b0000000000000000000000000000000000000 %
b0000000000000000000000000000000000000 ,
1.
17
#47
07
#48
0.
17
