waveform.vcd
$version Generated by VerilatedVcd $end
$timescale 100ps $end
 $scope module TOP $end
  $var wire 36 0 product [35:0] $end
  $var wire 1 2 done $end
  $var wire 18 3 mplier [17:0] $end
  $var wire 18 4 mcand [17:0] $end
  $var wire 1 5 n_reset $end
  $var wire 1 6 start $end
  $var wire 1 7 clk $end
  $scope module BoothRadix4 $end
   $var wire 32 8 N [31:0] $end
   $var wire 36 0 product [35:0] $end
   $var wire 1 2 done $end
   $var wire 18 3 mplier [17:0] $end
   $var wire 18 4 mcand [17:0] $end
   $var wire 1 5 n_reset $end
   $var wire 1 6 start $end
   $var wire 1 7 clk $end
   $var wire 2 9 IDLE [1:0] $end
   $var wire 2 : BUSY [1:0] $end
   $var wire 2 * state_reg [1:0] $end
   $var wire 2 # state_next [1:0] $end
   $var wire 5 + q_reg [4:0] $end
   $var wire 5 $ q_next [4:0] $end
   $var wire 37 , prod_reg [36:0] $end
   $var wire 37 % prod_next [36:0] $end
   $var wire 1 . result_reg $end
   $var wire 18 / mcand_reg [17:0] $end
   $var wire 18 ' mcand_next [17:0] $end
   $var wire 1 ( q_add $end
   $var wire 1 ) q_reset $end
  $upscope $end
 $upscope $end
$enddefinitions $end


#0
b00 #
b00000 $
b0000000000000000000000000000000000000 %
b000000000000000000 '
0(
0)
b00 *
b00000 +
b0000000000000000000000000000000000000 ,
0.
b000000000000000000 /
b000000000000000000000000000000000000 0
02
b000000000000000000 3
b000000000000000000 4
05
06
17
b00000000000000000000000000010010 8
b01 9
b10 :
#10
07
#20
b01 #
b01 *
17
#30
07
#40
17
#50
07
#60
17
#70
07
#80
17
#90
07
#100
b10 #
b00001 $
b0000000000000000000000100110010010010 %
b000011000101101010 '
1(
b10 *
b0000000000000000000001001100100100100 ,
b000011000101101010 /
b001001100100100100 3
b000011000101101010 4
15
16
17
#110
07
#120
b00010 $
b0000011000101101010000001001100100100 %
b00001 +
b0000000000000000000000010011001001001 ,
06
17
#130
07
#140
b00011 $
b1111010100110000110100000010011001001 %
b00010 +
b0000001100010110101000000100110010010 ,
17
#150
07
#160
b00100 $
b0000001101111001011101000000100110010 %
b00011 +
b1111101010011000011010000001001100100 ,
1.
17
#170
07
#180
b00101 $
b0000011100001011100111010000001001100 %
b00100 +
b0000000110111100101110100000010011001 ,
0.
17
#190
07
#200
b00110 $
b1111010101101000011001110100000010011 %
b00101 +
b0000001110000101110011101000000100110 ,
17
#210
07
#220
b00111 $
b0000100110110100100110011101000000100 %
b00110 +
b1111101010110100001100111010000001001 ,
1.
17
#230
07
#240
b01000 $
b1111011000010010101001100111010000001 %
b00111 +
b0000010011011010010011001110100000010 ,
0.
17
#250
07
#260
b01001 $
b0000001110110001111010011001110100000 %
b01000 +
b1111101100001001010100110011101000000 ,
1.
17
#270
07
#280
b01 #
b00000 $
b0000000011101100011110100110011101000 %
0(
1)
b01001 +
b0000000111011000111101001100111010000 ,
0.
12
17
